Block #,Class,Volunteer,,
73,Target,Rio Rancho Parks and Rec Office,,
97,Target,Bernalillo Town Offices,,
141,Target,SSCAFCA Offices,,
176,Target,Seven Bar Elementary,,
178,Target,Matt Custer,172 Mira Sol Road Corrales NM 87048,mcuster@cloversolutions.us 
191,Target,Paradise Hills Community Center,,
209,Target,LBJ Middle School,,
225,Target,Terrell Treat,,terrell.treat@state.nm.us
230,Target,Osuna Nursery,,
249,Target,Rose H (Susan's friend),Brenda Street NE,susan.rich@state.nm.us
265,Target,Bel Air Elementary,,
267,Target,Laura Moser,"9116 Orlando Place NE, 87111",lmoser@fs.fed.us
269,Target,Steve Glass,,jstvglass@gmail.com
275,Target,Painted Sky Elementary,,
278,Target,Sarah Hurteau,,sarah.hurteau@tnc.org
304,Target,CABQ Open Space,,
311,Target,Carlos Bustos,,cbustos@abcwua.org
316,Target,Josh Lamb,,jlamb@sandia.gov
320,Target,Kerry (Susan's friend),,susan.rich@state.nm.us
329,Target,First Choice Health Care,,
345,Target,Adobe Acres Elementary,,
93,Adjacent,Mike Mauer,Corner of Cliff and Kim,mikemaurer1@live.com
144,Adjacent,Andrew and Jenny Lisignoli,Perfecto Lopez,
202,Adjacent,Carla Busick,35 Cedar Hill Place NE,ccneuma@comcast.net
199,Adjacent,Greg Ten Eyck,SW Corner of 199,gateney@sandia.gov
235,Adjacent,Paul and Liz Smith,Papaya Place NE,msdinsdale@earthlink.net
252,Adjacent,Margo Murdock,5601 Mariola Place NE ,murdock@swcp.com
263,Adjacent,NM State Forestry Office - ABQ,4001 Edith NE,
282,Adjacent,Meghan McDonald,on edge of NW Corner of Block 300,meghan.mcdonald@state.nm.us
303,Adjacent,Pat Branwen,,pbranwen@unm.edu
111,Adjacent,Laure Dreher,,
281,Adjacent,John Garlisch,,
61,Other,NM State Forestry Office - Bernalillo,,
128,Other,Amy Bell,,
195,Other,Connie Stewart,,
232,Other,Ells Rolfs,,
262,Other,Bern Co Extension Office,,
266,Other,Amos Arber,,
281,Other,John Garlisch,,
282,Other,Kyle Fenton,,
279,Other,Judith Phillips,,
298,Other,Jennifer Dann,,
61,Other,NM State Forestry Office - Bernalillo,,
